Basic Simulations
…
The summary_season table is a season-level summary of all weeks within those seasons - any one of these seasons â€œcouldâ€ theoretically be the outcome of the upcoming season!

foureight_sim$summary_season
#> # A tibble: 300 x 12
#>    season league_id franchise_id franchise_name h2h_wins h2h_winpct allplay_wins
#>     <dbl> <chr>     <chr>        <chr>             <int>      <dbl>        <dbl>
#>  1      1 22627     0001         Mexico City S~       11      0.786          112
#>  2      1 22627     0002         Dirty Dgens           2      0.143           28
#>  3      1 22627     0003         Alberta Armad~        9      0.643           91
#>  4      1 22627     0004         Electric Wood~        2      0.143           48
#>  5      1 22627     0005         Motor City Mu~        8      0.571           86
#>  6      1 22627     0006         Hoth City Tau~        4      0.286           38
#>  7      1 22627     0007         Paw Patrol            9      0.643           96
#>  8      1 22627     0008         Domination St~       10      0.714           93
#>  9      1 22627     0009         Kill Devil Hi~        8      0.571           74
#> 10      1 22627     0010         [Redacted]            2      0.143           44
#> # ... with 290 more rows, and 5 more variables: allplay_games <dbl>,
#> #   allplay_winpct <dbl>, points_for <dbl>, points_against <dbl>,
#> #   potential_points <dbl>

The summary_week table is a week-level summary of each teamâ€™s performance, including the optimal lineup that could have been played by the team and the randomly-generated lineup efficiency factor:

foureight_sim$summary_week
#> # A tibble: 4,200 x 15
#>    season season_week franchise_name   optimal_score lineup_efficien~ team_score
#>     <dbl>       <dbl> <chr>                    <dbl>            <dbl>      <dbl>
#>  1      1           1 Mexico City Spa~          204.            0.738      151. 
#>  2      1           1 Dirty Dgens               109.            0.711       77.4
#>  3      1           1 Alberta Armadil~          178.            0.866      154. 
#>  4      1           1 Electric Woodies          158.            0.814      129. 
#>  5      1           1 Motor City Mutts          161             0.79       127. 
#>  6      1           1 Hoth City Taunt~          122.            0.831      101. 
#>  7      1           1 Paw Patrol                131.            0.715       93.3
#>  8      1           1 Domination Stat~          215.            0.716      154. 
#>  9      1           1 Kill Devil Hill~          152.            0.722      110. 
#> 10      1           1 [Redacted]                144.            0.656       94.2
#> # ... with 4,190 more rows, and 9 more variables: opponent_score <dbl>,
#> #   result <chr>, opponent_name <chr>, allplay_wins <dbl>, allplay_games <dbl>,
#> #   allplay_pct <dbl>, league_id <chr>, franchise_id <chr>,
#> #   optimal_lineup <list>

The roster_scores and projected_scores tables both provide individual player-week level scores, with the difference being that the roster_scores table is attached to franchise rosters (and thus duplicates rows if there are multiple copies of players within the league).

foureight_sim$roster_scores
#> # A tibble: 124,600 x 23
#>    franchise_id franchise_name    player_id player_name pos   team    age salary
#>    <chr>        <chr>             <chr>     <chr>       <chr> <chr> <dbl>  <dbl>
#>  1 0007         Paw Patrol        13128     Cook, Dalv~ RB    MIN    25.9  17.6 
#>  2 0009         Kill Devil Hills~ 13132     Kamara, Al~ RB    NOS    26    27.8 
#>  3 0009         Kill Devil Hills~ 13132     Kamara, Al~ RB    NOS    26    27.8 
#>  4 0001         Mexico City Spac~ 14797     Swift, D'A~ RB    DET    22.5   4.95
#>  5 0008         Domination Stati~ 13604     Barkley, S~ RB    NYG    24.4  25   
#>  6 0009         Kill Devil Hills~ 12625     Elliott, E~ RB    DAL    26    24.9 
#>  7 0001         Mexico City Spac~ 14081     Gaskin, My~ RB    MIA    24.4   1.1 
#>  8 0008         Domination Stati~ 12164     Davis, Mike RB    ATL    28.4   0.55
#>  9 0005         Motor City Mutts  12930     Anderson, ~ WR    CAR    28.2   5.72
#> 10 0005         Motor City Mutts  13404     Ekeler, Au~ RB    LAC    26.2  14.1 
#> # ... with 124,590 more rows, and 15 more variables: contract_years <dbl>,
#> #   roster_status <chr>, draft_year <chr>, draft_round <chr>,
#> #   fantasypros_id <chr>, league_id <chr>, ecr <dbl>, rank <dbl>,
#> #   projection <dbl>, injury_model <int>, season <int>, week <int>,
#> #   projected_score <dbl>, scrape_date <date>, pos_rank <int>
…
